DynVCRouter/debug.vcd
$date
	Tue May 13 17:06:56 2014
$end

$version
	Synopsys VCS version D-2009.12
$end

$timescale
	1ns
$end

$comment Csum: 1 63b037f8be39be2f $end


$scope module testbench $end
$var reg 1 ! clk $end
$var reg 1 " reset $end
$var reg 1 # read_enable $end
$var reg 1 $ write_enable $end
$var reg 64 % flit_in [0:63] $end
$var reg 2 & vc_read_from [0:-1] $end
$var reg 2 ' vc_written_into [0:-1] $end
$var wire 64 ( flit_out [0:63] $end
$var wire 1 ) memory_bank_full $end
$var wire 1 * memory_bank_empty $end

$scope function clogb $end
$var integer 32 + clogb $end
$var integer 32 , argument $end
$var integer 32 - i $end
$upscope $end


$scope function croot $end
$var integer 32 . croot $end
$var integer 32 / argument $end
$var integer 32 0 base $end
$var integer 32 1 i $end
$var integer 32 2 j $end
$upscope $end


$scope function pop_count $end
$var integer 32 3 pop_count $end
$var integer 32 4 argument $end
$var integer 32 5 i $end
$upscope $end


$scope function suffix_length $end
$var integer 32 6 suffix_length $end
$var integer 32 7 value1 $end
$var integer 32 8 value2 $end
$var integer 32 9 v1 $end
$var integer 32 : v2 $end
$upscope $end


$scope module bank $end
$var wire 1 ; clk $end
$var wire 1 < reset $end
$var wire 1 = read_enable $end
$var wire 1 > write_enable $end
$var wire 64 ? flit_in [0:63] $end
$var wire 2 @ vc_read_from [0:-1] $end
$var wire 2 A vc_written_into [0:-1] $end
$var reg 64 B flit_out [0:63] $end
$var wire 1 ) memory_bank_full $end
$var wire 1 * memory_bank_empty $end
$var wire 5 C memory_bank_read_ptr [0:4] $end
$var wire 5 D memory_bank_write_ptr [0:4] $end

$scope function clogb $end
$var integer 32 E clogb $end
$var integer 32 F argument $end
$var integer 32 G i $end
$upscope $end


$scope function croot $end
$var integer 32 H croot $end
$var integer 32 I argument $end
$var integer 32 J base $end
$var integer 32 K i $end
$var integer 32 L j $end
$upscope $end


$scope function pop_count $end
$var integer 32 M pop_count $end
$var integer 32 N argument $end
$var integer 32 O i $end
$upscope $end


$scope function suffix_length $end
$var integer 32 P suffix_length $end
$var integer 32 Q value1 $end
$var integer 32 R value2 $end
$var integer 32 S v1 $end
$var integer 32 T v2 $end
$upscope $end


$scope module tracker $end
$var wire 1 ; clk $end
$var wire 1 < reset $end
$var wire 1 > allocate_addr $end
$var wire 1 = reclaim_addr $end
$var wire 1 * tracker_full $end
$var wire 1 ) tracker_empty $end
$var wire 5 C freed_flit_addr [0:4] $end
$var wire 5 D available_flit_addr [0:4] $end
$var reg 6 U counter [0:5] $end
$var reg 5 V read_ptr [0:4] $end
$var reg 5 W write_ptr [0:4] $end

$scope function clogb $end
$var integer 32 X clogb $end
$var integer 32 Y argument $end
$var integer 32 Z i $end
$upscope $end


$scope function croot $end
$var integer 32 [ croot $end
$var integer 32 \ argument $end
$var integer 32 ] base $end
$var integer 32 ^ i $end
$var integer 32 _ j $end
$upscope $end


$scope function pop_count $end
$var integer 32 ` pop_count $end
$var integer 32 a argument $end
$var integer 32 b i $end
$upscope $end


$scope function suffix_length $end
$var integer 32 c suffix_length $end
$var integer 32 d value1 $end
$var integer 32 e value2 $end
$var integer 32 f v1 $end
$var integer 32 g v2 $end
$upscope $end

$upscope $end

$upscope $end

$upscope $end

$enddefinitions $end

#0
$dumpvars
0;
0=
1<
0>
0!
x*
x)
0#
1"
0$
bxxxxxxxxxxxxxxxxxxxxxxxxxxxxxxxx F
bxxxxxxxxxxxxxxxxxxxxxxxxxxxxxxxx E
bxxxxxxxxxxxxxxxxxxxxxxxxxxxxxxxx G
bxxxxxxxxxxxxxxxxxxxxxxxxxxxxxxxx I
bxxxxxxxxxxxxxxxxxxxxxxxxxxxxxxxx H
bxxxxxxxxxxxxxxxxxxxxxxxxxxxxxxxx K
bxxxxxxxxxxxxxxxxxxxxxxxxxxxxxxxx L
bxxxxxxxxxxxxxxxxxxxxxxxxxxxxxxxx J
b0000000000000000000000000000000000000000000000000000000000000000 ?
bxxxxxxxxxxxxxxxxxxxxxxxxxxxxxxxxxxxxxxxxxxxxxxxxxxxxxxxxxxxxxxxx B
bxxxxxxxxxxxxxxxxxxxxxxxxxxxxxxxx N
bxxxxxxxxxxxxxxxxxxxxxxxxxxxxxxxx O
bxxxxxxxxxxxxxxxxxxxxxxxxxxxxxxxx M
bxxxxxxxxxxxxxxxxxxxxxxxxxxxxxxxx P
bxxxxxxxxxxxxxxxxxxxxxxxxxxxxxxxx S
bxxxxxxxxxxxxxxxxxxxxxxxxxxxxxxxx T
bxxxxxxxxxxxxxxxxxxxxxxxxxxxxxxxx Q
bxxxxxxxxxxxxxxxxxxxxxxxxxxxxxxxx R
b00 @
b00 A
bxxxxxxxxxxxxxxxxxxxxxxxxxxxxxxxx ,
bxxxxxxxxxxxxxxxxxxxxxxxxxxxxxxxx +
bxxxxxxxxxxxxxxxxxxxxxxxxxxxxxxxx -
bxxxxxx U
bxxxxxxxxxxxxxxxxxxxxxxxxxxxxxxxx /
bxxxxxxxxxxxxxxxxxxxxxxxxxxxxxxxx 0
bxxxxxxxxxxxxxxxxxxxxxxxxxxxxxxxx .
bxxxxxxxxxxxxxxxxxxxxxxxxxxxxxxxx 1
bxxxxxxxxxxxxxxxxxxxxxxxxxxxxxxxx 2
b0000000000000000000000000000000000000000000000000000000000000000 %
bxxxxxxxxxxxxxxxxxxxxxxxxxxxxxxxxxxxxxxxxxxxxxxxxxxxxxxxxxxxxxxxx (
bxxxxx C
bxxxxx D
bxxxxxxxxxxxxxxxxxxxxxxxxxxxxxxxx 4
bxxxxxxxxxxxxxxxxxxxxxxxxxxxxxxxx 5
bxxxxxxxxxxxxxxxxxxxxxxxxxxxxxxxx 3
bxxxxx V
bxxxxxxxxxxxxxxxxxxxxxxxxxxxxxxxx 6
bxxxxxxxxxxxxxxxxxxxxxxxxxxxxxxxx 9
bxxxxxxxxxxxxxxxxxxxxxxxxxxxxxxxx :
bxxxxxxxxxxxxxxxxxxxxxxxxxxxxxxxx 7
bxxxxxxxxxxxxxxxxxxxxxxxxxxxxxxxx 8
bxxxxxxxxxxxxxxxxxxxxxxxxxxxxxxxx Y
bxxxxxxxxxxxxxxxxxxxxxxxxxxxxxxxx X
bxxxxxxxxxxxxxxxxxxxxxxxxxxxxxxxx Z
bxxxxxxxxxxxxxxxxxxxxxxxxxxxxxxxx \
bxxxxxxxxxxxxxxxxxxxxxxxxxxxxxxxx ]
bxxxxxxxxxxxxxxxxxxxxxxxxxxxxxxxx [
bxxxxxxxxxxxxxxxxxxxxxxxxxxxxxxxx ^
bxxxxxxxxxxxxxxxxxxxxxxxxxxxxxxxx _
bxxxxxxxxxxxxxxxxxxxxxxxxxxxxxxxx a
bxxxxxxxxxxxxxxxxxxxxxxxxxxxxxxxx b
bxxxxxxxxxxxxxxxxxxxxxxxxxxxxxxxx `
bxxxxxxxxxxxxxxxxxxxxxxxxxxxxxxxx c
bxxxxxxxxxxxxxxxxxxxxxxxxxxxxxxxx f
bxxxxxxxxxxxxxxxxxxxxxxxxxxxxxxxx g
bxxxxxxxxxxxxxxxxxxxxxxxxxxxxxxxx d
bxxxxxxxxxxxxxxxxxxxxxxxxxxxxxxxx e
b00 &
b00 '
bxxxxx W
$end
#1
1!
1;
b0000000000000000000000000000000000000000000000000000000000000000 B
b0000000000000000000000000000000000000000000000000000000000000000 (
b00000 V
b00000 W
b100000 U
1*
0)
b00000 C
b00000 D
#2
0"
0<
1$
1>
b0000000000000000000000000000000000000000000000000000000000000001 %
b0000000000000000000000000000000000000000000000000000000000000001 ?
0!
0;
#3
1!
1;
b011111 U
0*
b00001 V
b00001 D
#4
1#
1=
b0000000000000000000000000000000000000000000000000000000000000010 %
b0000000000000000000000000000000000000000000000000000000000000010 ?
0!
0;
#5
1!
1;
b0000000000000000000000000000000000000000000000000000000000000001 B
b0000000000000000000000000000000000000000000000000000000000000001 (
b00010 V
b00001 W
b00010 D
#6
b0000000000000000000000000000000000000000000000000000000000000011 %
b0000000000000000000000000000000000000000000000000000000000000011 ?
0!
0;
#7
1!
1;
b00011 V
b00010 W
b00001 C
b00011 D
#8
0$
0>
0!
0;
#9
1!
1;
b0000000000000000000000000000000000000000000000000000000000000010 B
b0000000000000000000000000000000000000000000000000000000000000010 (
b100000 U
1*
b00011 W
b00010 C
#10
0#
0=
1$
1>
b0000000000000000000000000000000000000000000000000000000000000100 %
b0000000000000000000000000000000000000000000000000000000000000100 ?
0!
0;
#11
1!
1;
b011111 U
0*
b00100 V
b00100 D
#12
b0000000000000000000000000000000000000000000000000000000000000101 %
b0000000000000000000000000000000000000000000000000000000000000101 ?
0!
0;
#13
1!
1;
b011110 U
b00101 V
b00101 D
#14
1#
1=
0$
0>
0!
0;
#15
1!
1;
b0000000000000000000000000000000000000000000000000000000000000011 B
b0000000000000000000000000000000000000000000000000000000000000011 (
b011111 U
b00100 W
b00011 C
#16
0!
0;
#17
1!
1;
b0000000000000000000000000000000000000000000000000000000000000100 B
b0000000000000000000000000000000000000000000000000000000000000100 (
b100000 U
1*
b00101 W
b00100 C
#18
0#
0=
0!
0;
#19
1!
1;
#20
1$
1>
b0000000000000000000000000000000000000000000000000000000000000110 %
b0000000000000000000000000000000000000000000000000000000000000110 ?
0!
0;
#21
1!
1;
b011111 U
0*
b00110 V
b00110 D
#22
b0000000000000000000000000000000000000000000000000000000000000111 %
b0000000000000000000000000000000000000000000000000000000000000111 ?
0!
0;
#23
1!
1;
b011110 U
b00111 V
b00111 D
#24
0$
0>
0!
0;
#25
1!
1;
#26
1$
1>
b0000000000000000000000000000000000000000000000000000000000001000 %
b0000000000000000000000000000000000000000000000000000000000001000 ?
0!
0;
#27
1!
1;
b011101 U
b01000 V
b01000 D
#28
b0000000000000000000000000000000000000000000000000000000000001001 %
b0000000000000000000000000000000000000000000000000000000000001001 ?
0!
0;
#29
1!
1;
b011100 U
b01001 V
b01001 D
#30
1#
1=
b0000000000000000000000000000000000000000000000000000000000001010 %
b0000000000000000000000000000000000000000000000000000000000001010 ?
0!
0;
#31
1!
1;
b0000000000000000000000000000000000000000000000000000000000000101 B
b0000000000000000000000000000000000000000000000000000000000000101 (
b01010 V
b00110 W
b00101 C
b01010 D
#32
0$
0>
0!
0;
#33
1!
1;
b0000000000000000000000000000000000000000000000000000000000000110 B
b0000000000000000000000000000000000000000000000000000000000000110 (
b011101 U
b00111 W
b00110 C
#34
0#
0=
0!
0;
#35
1!
1;
#36
1$
1>
b0000000000000000000000000000000000000000000000000000000000001011 %
b0000000000000000000000000000000000000000000000000000000000001011 ?
0!
0;
#37
1!
1;
b011100 U
b01011 V
b01011 D
#38
b0000000000000000000000000000000000000000000000000000000000001100 %
b0000000000000000000000000000000000000000000000000000000000001100 ?
0!
0;
#39
1!
1;
b011011 U
b01100 V
b01100 D
#40
1#
1=
b0000000000000000000000000000000000000000000000000000000000001101 %
b0000000000000000000000000000000000000000000000000000000000001101 ?
0!
0;
#41
1!
1;
b0000000000000000000000000000000000000000000000000000000000000111 B
b0000000000000000000000000000000000000000000000000000000000000111 (
b01101 V
b01000 W
b00111 C
b01101 D
#42
b0000000000000000000000000000000000000000000000000000000000001110 %
b0000000000000000000000000000000000000000000000000000000000001110 ?
0!
0;
#43
1!
1;
b0000000000000000000000000000000000000000000000000000000000001000 B
b0000000000000000000000000000000000000000000000000000000000001000 (
b01110 V
b01001 W
b01000 C
b01110 D
#44
0#
0=
0$
0>
0!
0;
#45
1!
1;
#46
1#
1=
1$
1>
b0000000000000000000000000000000000000000000000000000000000001111 %
b0000000000000000000000000000000000000000000000000000000000001111 ?
0!
0;
#47
1!
1;
b0000000000000000000000000000000000000000000000000000000000001001 B
b0000000000000000000000000000000000000000000000000000000000001001 (
b01111 V
b01010 W
b01001 C
b01111 D
#48
0$
0>
0!
0;
#49
1!
1;
b0000000000000000000000000000000000000000000000000000000000001010 B
b0000000000000000000000000000000000000000000000000000000000001010 (
b011100 U
b01011 W
b01010 C
#50
0#
0=
0!
0;
#51
1!
1;
#52
0!
0;
#53
1!
1;
#54
1#
1=
0!
0;
#55
1!
1;
b0000000000000000000000000000000000000000000000000000000000001011 B
b0000000000000000000000000000000000000000000000000000000000001011 (
b011101 U
b01100 W
b01011 C
#56
0#
0=
1$
1>
b0000000000000000000000000000000000000000000000000000000000010000 %
b0000000000000000000000000000000000000000000000000000000000010000 ?
0!
0;
#57
1!
1;
b011100 U
b10000 V
b10000 D
#58
1#
1=
0$
0>
0!
0;
#59
1!
1;
b0000000000000000000000000000000000000000000000000000000000001100 B
b0000000000000000000000000000000000000000000000000000000000001100 (
b011101 U
b01101 W
b01100 C
#60
0#
0=
0!
0;
#61
1!
1;
#62
0!
0;
#63
1!
1;
#64
1#
1=
1$
1>
b0000000000000000000000000000000000000000000000000000000000010001 %
b0000000000000000000000000000000000000000000000000000000000010001 ?
0!
0;
#65
1!
1;
b0000000000000000000000000000000000000000000000000000000000001101 B
b0000000000000000000000000000000000000000000000000000000000001101 (
b10001 V
b01110 W
b01101 C
b10001 D
#66
b0000000000000000000000000000000000000000000000000000000000010010 %
b0000000000000000000000000000000000000000000000000000000000010010 ?
0!
0;
#67
1!
1;
b0000000000000000000000000000000000000000000000000000000000001110 B
b0000000000000000000000000000000000000000000000000000000000001110 (
b10010 V
b01111 W
b01110 C
b10010 D
#68
0$
0>
0!
0;
#69
1!
1;
b0000000000000000000000000000000000000000000000000000000000001111 B
b0000000000000000000000000000000000000000000000000000000000001111 (
b011110 U
b10000 W
b01111 C
#70
0#
0=
1$
1>
b0000000000000000000000000000000000000000000000000000000000010011 %
b0000000000000000000000000000000000000000000000000000000000010011 ?
0!
0;
#71
1!
1;
b011101 U
b10011 V
b10011 D
#72
1#
1=
b0000000000000000000000000000000000000000000000000000000000010100 %
b0000000000000000000000000000000000000000000000000000000000010100 ?
0!
0;
#73
1!
1;
b0000000000000000000000000000000000000000000000000000000000010000 B
b0000000000000000000000000000000000000000000000000000000000010000 (
b10100 V
b10001 W
b10000 C
b10100 D
#74
0#
0=
0$
0>
0!
0;
#75
1!
1;
#76
1#
1=
1$
1>
b0000000000000000000000000000000000000000000000000000000000010101 %
b0000000000000000000000000000000000000000000000000000000000010101 ?
0!
0;
#77
1!
1;
b0000000000000000000000000000000000000000000000000000000000010001 B
b0000000000000000000000000000000000000000000000000000000000010001 (
b10101 V
b10010 W
b10001 C
b10101 D
#78
0#
0=
b0000000000000000000000000000000000000000000000000000000000010110 %
b0000000000000000000000000000000000000000000000000000000000010110 ?
0!
0;
#79
1!
1;
b011100 U
b10110 V
b10110 D
#80
1#
1=
0$
0>
0!
0;
#81
1!
1;
b0000000000000000000000000000000000000000000000000000000000010010 B
b0000000000000000000000000000000000000000000000000000000000010010 (
b011101 U
b10011 W
b10010 C
#82
1$
1>
b0000000000000000000000000000000000000000000000000000000000010111 %
b0000000000000000000000000000000000000000000000000000000000010111 ?
0!
0;
#83
1!
1;
b0000000000000000000000000000000000000000000000000000000000010011 B
b0000000000000000000000000000000000000000000000000000000000010011 (
b10111 V
b10100 W
b10011 C
b10111 D
#84
0$
0>
0!
0;
#85
1!
1;
b0000000000000000000000000000000000000000000000000000000000010100 B
b0000000000000000000000000000000000000000000000000000000000010100 (
b011110 U
b10101 W
b10100 C
#86
1$
1>
b0000000000000000000000000000000000000000000000000000000000011000 %
b0000000000000000000000000000000000000000000000000000000000011000 ?
0!
0;
#87
1!
1;
b0000000000000000000000000000000000000000000000000000000000010101 B
b0000000000000000000000000000000000000000000000000000000000010101 (
b11000 V
b10110 W
b10101 C
b11000 D
#88
0#
0=
0$
0>
0!
0;
#89
1!
1;
#90
0!
0;
#91
1!
1;
#92
1#
1=
1$
1>
b0000000000000000000000000000000000000000000000000000000000011001 %
b0000000000000000000000000000000000000000000000000000000000011001 ?
0!
0;
#93
1!
1;
b0000000000000000000000000000000000000000000000000000000000010110 B
b0000000000000000000000000000000000000000000000000000000000010110 (
b11001 V
b10111 W
b10110 C
b11001 D
#94
0#
0=
0$
0>
0!
0;
#95
1!
1;
#96
1#
1=
1$
1>
b0000000000000000000000000000000000000000000000000000000000011010 %
b0000000000000000000000000000000000000000000000000000000000011010 ?
0!
0;
#97
1!
1;
b0000000000000000000000000000000000000000000000000000000000010111 B
b0000000000000000000000000000000000000000000000000000000000010111 (
b11010 V
b11000 W
b10111 C
b11010 D
#98
b0000000000000000000000000000000000000000000000000000000000011011 %
b0000000000000000000000000000000000000000000000000000000000011011 ?
0!
0;
#99
1!
1;
b0000000000000000000000000000000000000000000000000000000000011000 B
b0000000000000000000000000000000000000000000000000000000000011000 (
b11011 V
b11001 W
b11000 C
b11011 D
#100
0$
0>
0!
0;
#101
1!
1;
b0000000000000000000000000000000000000000000000000000000000011001 B
b0000000000000000000000000000000000000000000000000000000000011001 (
b011111 U
b11010 W
b11001 C
#102
1$
1>
b0000000000000000000000000000000000000000000000000000000000011100 %
b0000000000000000000000000000000000000000000000000000000000011100 ?
0!
0;
#103
1!
1;
b0000000000000000000000000000000000000000000000000000000000011010 B
b0000000000000000000000000000000000000000000000000000000000011010 (
b11100 V
b11011 W
b11010 C
b11100 D
#104
0$
0>
0!
0;
#105
1!
1;
b0000000000000000000000000000000000000000000000000000000000011011 B
b0000000000000000000000000000000000000000000000000000000000011011 (
b100000 U
1*
b11100 W
b11011 C
#106
0#
0=
0!
0;
#107
1!
1;
#108
0!
0;
#109
1!
1;
#110
0!
0;
#111
1!
1;
#112
1$
1>
b0000000000000000000000000000000000000000000000000000000000011101 %
b0000000000000000000000000000000000000000000000000000000000011101 ?
0!
0;
#113
1!
1;
b011111 U
0*
b11101 V
b11101 D
#114
1#
1=
b0000000000000000000000000000000000000000000000000000000000011110 %
b0000000000000000000000000000000000000000000000000000000000011110 ?
0!
0;
#115
1!
1;
b0000000000000000000000000000000000000000000000000000000000011100 B
b0000000000000000000000000000000000000000000000000000000000011100 (
b11110 V
b11101 W
b11100 C
b11110 D
#116
0$
0>
0!
0;
#117
1!
1;
b0000000000000000000000000000000000000000000000000000000000011101 B
b0000000000000000000000000000000000000000000000000000000000011101 (
b100000 U
1*
b11110 W
b11101 C
#118
0#
0=
1$
1>
b0000000000000000000000000000000000000000000000000000000000011111 %
b0000000000000000000000000000000000000000000000000000000000011111 ?
0!
0;
#119
1!
1;
b011111 U
0*
b11111 V
b11111 D
#120
0$
0>
0!
0;
#121
1!
1;
#122
1#
1=
1$
1>
b0000000000000000000000000000000000000000000000000000000000100000 %
b0000000000000000000000000000000000000000000000000000000000100000 ?
0!
0;
#123
1!
1;
b0000000000000000000000000000000000000000000000000000000000011110 B
b0000000000000000000000000000000000000000000000000000000000011110 (
b00000 V
b11111 W
b11110 C
b00000 D
#124
0#
0=
b0000000000000000000000000000000000000000000000000000000000100001 %
b0000000000000000000000000000000000000000000000000000000000100001 ?
0!
0;
#125
1!
1;
b011110 U
b00001 V
#126
1#
1=
b0000000000000000000000000000000000000000000000000000000000100010 %
b0000000000000000000000000000000000000000000000000000000000100010 ?
0!
0;
#127
1!
1;
b0000000000000000000000000000000000000000000000000000000000011111 B
b0000000000000000000000000000000000000000000000000000000000011111 (
b00010 V
b00000 W
b11111 C
b00001 D
#128
0$
0>
0!
0;
#129
1!
1;
b0000000000000000000000000000000000000000000000000000000000100000 B
b0000000000000000000000000000000000000000000000000000000000100000 (
b011111 U
b00001 W
b00000 C
#130
0#
0=
0!
0;
#131
1!
1;
#132
1#
1=
0!
0;
#133
1!
1;
b0000000000000000000000000000000000000000000000000000000000100010 B
b0000000000000000000000000000000000000000000000000000000000100010 (
b100000 U
1*
b00010 W
#134
0#
0=
0!
0;
#135
1!
1;
#136
1$
1>
b0000000000000000000000000000000000000000000000000000000000100011 %
b0000000000000000000000000000000000000000000000000000000000100011 ?
0!
0;
#137
1!
1;
b011111 U
0*
b00011 V
b00010 D
#138
0$
0>
0!
0;
#139
1!
1;
#140
1#
1=
0!
0;
#141
1!
1;
b100000 U
1*
b00011 W
b00001 C
#142
0#
0=
0!
0;
#143
1!
1;
#144
0!
0;
#145
1!
1;
#146
1$
1>
b0000000000000000000000000000000000000000000000000000000000100100 %
b0000000000000000000000000000000000000000000000000000000000100100 ?
0!
0;
#147
1!
1;
b011111 U
0*
b00100 V
b00011 D
#148
b0000000000000000000000000000000000000000000000000000000000100101 %
b0000000000000000000000000000000000000000000000000000000000100101 ?
0!
0;
#149
1!
1;
b011110 U
b00101 V
b00100 D
#150
1#
1=
b0000000000000000000000000000000000000000000000000000000000100110 %
b0000000000000000000000000000000000000000000000000000000000100110 ?
0!
0;
#151
1!
1;
b0000000000000000000000000000000000000000000000000000000000100011 B
b0000000000000000000000000000000000000000000000000000000000100011 (
b00110 V
b00100 W
b00010 C
b00101 D
#152
b0000000000000000000000000000000000000000000000000000000000100111 %
b0000000000000000000000000000000000000000000000000000000000100111 ?
0!
0;
#153
1!
1;
b0000000000000000000000000000000000000000000000000000000000100100 B
b0000000000000000000000000000000000000000000000000000000000100100 (
b00111 V
b00101 W
b00011 C
b00110 D
#154
0#
0=
0$
0>
0!
0;
#155
1!
1;
#156
1$
1>
b0000000000000000000000000000000000000000000000000000000000101000 %
b0000000000000000000000000000000000000000000000000000000000101000 ?
0!
0;
#157
1!
1;
b011101 U
b01000 V
b00111 D
#158
0$
0>
0!
0;
#159
1!
1;
#160
1#
1=
1$
1>
b0000000000000000000000000000000000000000000000000000000000101001 %
b0000000000000000000000000000000000000000000000000000000000101001 ?
0!
0;
#161
1!
1;
b0000000000000000000000000000000000000000000000000000000000100101 B
b0000000000000000000000000000000000000000000000000000000000100101 (
b01001 V
b00110 W
b00100 C
b01000 D
#162
0#
0=
0$
0>
0!
0;
#163
1!
1;
#164
1$
1>
b0000000000000000000000000000000000000000000000000000000000101010 %
b0000000000000000000000000000000000000000000000000000000000101010 ?
0!
0;
#165
1!
1;
b011100 U
b01010 V
b01001 D
#166
1#
1=
0$
0>
0!
0;
#167
1!
1;
b0000000000000000000000000000000000000000000000000000000000100110 B
b0000000000000000000000000000000000000000000000000000000000100110 (
b011101 U
b00111 W
b00101 C
#168
0#
0=
0!
0;
#169
1!
1;
#170
1#
1=
1$
1>
b0000000000000000000000000000000000000000000000000000000000101011 %
b0000000000000000000000000000000000000000000000000000000000101011 ?
0!
0;
#171
1!
1;
b0000000000000000000000000000000000000000000000000000000000100111 B
b0000000000000000000000000000000000000000000000000000000000100111 (
b01011 V
b01000 W
b00110 C
b01010 D
#172
0#
0=
0$
0>
0!
0;
#173
1!
1;
#174
1$
1>
b0000000000000000000000000000000000000000000000000000000000101100 %
b0000000000000000000000000000000000000000000000000000000000101100 ?
0!
0;
#175
1!
1;
b011100 U
b01100 V
b01011 D
#176
0$
0>
0!
0;
#177
1!
1;
#178
1#
1=
0!
0;
#179
1!
1;
b0000000000000000000000000000000000000000000000000000000000101000 B
b0000000000000000000000000000000000000000000000000000000000101000 (
b011101 U
b01001 W
b00111 C
#180
0#
0=
0!
0;
#181
1!
1;
#182
1#
1=
0!
0;
#183
1!
1;
b0000000000000000000000000000000000000000000000000000000000101001 B
b0000000000000000000000000000000000000000000000000000000000101001 (
b011110 U
b01010 W
b01000 C
#184
1$
1>
b0000000000000000000000000000000000000000000000000000000000101101 %
b0000000000000000000000000000000000000000000000000000000000101101 ?
0!
0;
#185
1!
1;
b0000000000000000000000000000000000000000000000000000000000101010 B
b0000000000000000000000000000000000000000000000000000000000101010 (
b01101 V
b01011 W
b01001 C
b01100 D
#186
0#
0=
0$
0>
0!
0;
#187
1!
1;
#188
0!
0;
#189
1!
1;
#190
1#
1=
0!
0;
#191
1!
1;
b0000000000000000000000000000000000000000000000000000000000101011 B
b0000000000000000000000000000000000000000000000000000000000101011 (
b011111 U
b01100 W
b01010 C
#192
0#
0=
0!
0;
#193
1!
1;
#194
1$
1>
b0000000000000000000000000000000000000000000000000000000000101110 %
b0000000000000000000000000000000000000000000000000000000000101110 ?
0!
0;
#195
1!
1;
b011110 U
b01110 V
b01101 D
#196
1#
1=
b0000000000000000000000000000000000000000000000000000000000101111 %
b0000000000000000000000000000000000000000000000000000000000101111 ?
0!
0;
#197
1!
1;
b0000000000000000000000000000000000000000000000000000000000101100 B
b0000000000000000000000000000000000000000000000000000000000101100 (
b01111 V
b01101 W
b01011 C
b01110 D
#198
0#
0=
b0000000000000000000000000000000000000000000000000000000000110000 %
b0000000000000000000000000000000000000000000000000000000000110000 ?
0!
0;
#199
1!
1;
b011101 U
b10000 V
b01111 D
#200
1#
1=
b0000000000000000000000000000000000000000000000000000000000110001 %
b0000000000000000000000000000000000000000000000000000000000110001 ?
0!
0;
#201
1!
1;
b0000000000000000000000000000000000000000000000000000000000101101 B
b0000000000000000000000000000000000000000000000000000000000101101 (
b10001 V
b01110 W
b01100 C
b10000 D
#202
0#
0=
0$
0>
0!
0;
#203
1!
1;
#204
1#
1=
1$
1>
b0000000000000000000000000000000000000000000000000000000000110010 %
b0000000000000000000000000000000000000000000000000000000000110010 ?
0!
0;
#205
1!
1;
b0000000000000000000000000000000000000000000000000000000000101110 B
b0000000000000000000000000000000000000000000000000000000000101110 (
b10010 V
b01111 W
b01101 C
b10001 D
#206
b0000000000000000000000000000000000000000000000000000000000110011 %
b0000000000000000000000000000000000000000000000000000000000110011 ?
0!
0;
#207
1!
1;
b0000000000000000000000000000000000000000000000000000000000101111 B
b0000000000000000000000000000000000000000000000000000000000101111 (
b10011 V
b10000 W
b01110 C
b10010 D
#208
0$
0>
0!
0;
#209
1!
1;
b0000000000000000000000000000000000000000000000000000000000110000 B
b0000000000000000000000000000000000000000000000000000000000110000 (
b011110 U
b10001 W
b01111 C
#210
1$
1>
b0000000000000000000000000000000000000000000000000000000000110100 %
b0000000000000000000000000000000000000000000000000000000000110100 ?
0!
0;
#211
1!
1;
b0000000000000000000000000000000000000000000000000000000000110001 B
b0000000000000000000000000000000000000000000000000000000000110001 (
b10100 V
b10010 W
b10000 C
b10011 D
#212
0#
0=
0$
0>
0!
0;
#213
1!
1;
#214
0!
0;
#215
1!
1;
#216
1#
1=
1$
1>
b0000000000000000000000000000000000000000000000000000000000110101 %
b0000000000000000000000000000000000000000000000000000000000110101 ?
0!
0;
#217
1!
1;
b0000000000000000000000000000000000000000000000000000000000110010 B
b0000000000000000000000000000000000000000000000000000000000110010 (
b10101 V
b10011 W
b10001 C
b10100 D
#218
0#
0=
0$
0>
0!
0;
#219
1!
1;
#220
1#
1=
0!
0;
#221
1!
1;
b0000000000000000000000000000000000000000000000000000000000110011 B
b0000000000000000000000000000000000000000000000000000000000110011 (
b011111 U
b10100 W
b10010 C
#222
0#
0=
1$
1>
b0000000000000000000000000000000000000000000000000000000000110110 %
b0000000000000000000000000000000000000000000000000000000000110110 ?
0!
0;
#223
1!
1;
b011110 U
b10110 V
b10101 D
#224
0$
0>
0!
0;
#225
1!
1;
#226
1#
1=
0!
0;
#227
1!
1;
b0000000000000000000000000000000000000000000000000000000000110100 B
b0000000000000000000000000000000000000000000000000000000000110100 (
b011111 U
b10101 W
b10011 C
#228
0#
0=
1$
1>
b0000000000000000000000000000000000000000000000000000000000110111 %
b0000000000000000000000000000000000000000000000000000000000110111 ?
0!
0;
#229
1!
1;
b011110 U
b10111 V
b10110 D
#230
1#
1=
b0000000000000000000000000000000000000000000000000000000000111000 %
b0000000000000000000000000000000000000000000000000000000000111000 ?
0!
0;
#231
1!
1;
b0000000000000000000000000000000000000000000000000000000000110101 B
b0000000000000000000000000000000000000000000000000000000000110101 (
b11000 V
b10110 W
b10100 C
b10111 D
#232
0#
0=
0$
0>
0!
0;
#233
1!
1;
#234
1$
1>
b0000000000000000000000000000000000000000000000000000000000111001 %
b0000000000000000000000000000000000000000000000000000000000111001 ?
0!
0;
#235
1!
1;
b011101 U
b11001 V
b11000 D
#236
0$
0>
0!
0;
#237
1!
1;
#238
1#
1=
0!
0;
#239
1!
1;
b0000000000000000000000000000000000000000000000000000000000110110 B
b0000000000000000000000000000000000000000000000000000000000110110 (
b011110 U
b10111 W
b10101 C
#240
0#
0=
0!
0;
#241
1!
1;
#242
1$
1>
b0000000000000000000000000000000000000000000000000000000000111010 %
b0000000000000000000000000000000000000000000000000000000000111010 ?
0!
0;
#243
1!
1;
b011101 U
b11010 V
b11001 D
#244
0$
0>
0!
0;
#245
1!
1;
#246
1$
1>
b0000000000000000000000000000000000000000000000000000000000111011 %
b0000000000000000000000000000000000000000000000000000000000111011 ?
0!
0;
#247
1!
1;
b011100 U
b11011 V
b11010 D
#248
1#
1=
0$
0>
0!
0;
#249
1!
1;
b0000000000000000000000000000000000000000000000000000000000110111 B
b0000000000000000000000000000000000000000000000000000000000110111 (
b011101 U
b11000 W
b10110 C
#250
1$
1>
b0000000000000000000000000000000000000000000000000000000000111100 %
b0000000000000000000000000000000000000000000000000000000000111100 ?
0!
0;
#251
1!
1;
b0000000000000000000000000000000000000000000000000000000000111000 B
b0000000000000000000000000000000000000000000000000000000000111000 (
b11100 V
b11001 W
b10111 C
b11011 D
#252
b0000000000000000000000000000000000000000000000000000000000111101 %
b0000000000000000000000000000000000000000000000000000000000111101 ?
0!
0;
#253
1!
1;
b0000000000000000000000000000000000000000000000000000000000111001 B
b0000000000000000000000000000000000000000000000000000000000111001 (
b11101 V
b11010 W
b11000 C
b11100 D
#254
0#
0=
b0000000000000000000000000000000000000000000000000000000000111110 %
b0000000000000000000000000000000000000000000000000000000000111110 ?
0!
0;
#255
1!
1;
b011100 U
b11110 V
b11101 D
#256
1#
1=
b0000000000000000000000000000000000000000000000000000000000111111 %
b0000000000000000000000000000000000000000000000000000000000111111 ?
0!
0;
#257
1!
1;
b0000000000000000000000000000000000000000000000000000000000111010 B
b0000000000000000000000000000000000000000000000000000000000111010 (
b11111 V
b11011 W
b11001 C
b11110 D
