DynVCRouter/debug.vcd
$date
	Mon May 12 21:26:52 2014
$end

$version
	Synopsys VCS version D-2009.12
$end

$timescale
	1ns
$end

$comment Csum: 1 d61adf98296284c4 $end


$scope module testbench $end
$var reg 1 ! clk $end
$var reg 1 " reset $end
$var reg 1 # read_enable $end
$var reg 1 $ write_enable $end
$var reg 64 % flit_in [0:63] $end
$var reg 2 & vc_read_from [0:1] $end
$var reg 2 ' vc_written_into [0:1] $end
$var wire 64 ( flit_out [0:63] $end
$var wire 1 ) memory_bank_full $end
$var wire 1 * memory_bank_empty $end

$scope function clogb $end
$var integer 32 + clogb $end
$var integer 32 , argument $end
$var integer 32 - i $end
$upscope $end


$scope function croot $end
$var integer 32 . croot $end
$var integer 32 / argument $end
$var integer 32 0 base $end
$var integer 32 1 i $end
$var integer 32 2 j $end
$upscope $end


$scope function pop_count $end
$var integer 32 3 pop_count $end
$var integer 32 4 argument $end
$var integer 32 5 i $end
$upscope $end


$scope function suffix_length $end
$var integer 32 6 suffix_length $end
$var integer 32 7 value1 $end
$var integer 32 8 value2 $end
$var integer 32 9 v1 $end
$var integer 32 : v2 $end
$upscope $end


$scope module bank $end
$var wire 1 ; clk $end
$var wire 1 < reset $end
$var wire 1 = read_enable $end
$var wire 1 > write_enable $end
$var wire 64 ? flit_in [0:63] $end
$var wire 2 @ vc_read_from [0:1] $end
$var wire 2 A vc_written_into [0:1] $end
$var reg 64 B flit_out [0:63] $end
$var wire 1 ) memory_bank_full $end
$var wire 1 * memory_bank_empty $end
$var wire 5 C memory_bank_read_ptr [0:4] $end
$var wire 5 D memory_bank_write_ptr [0:4] $end
$var wire 5 E wtail_pointer [0:4] $end
$var wire 10 F group_tail_pointer [0:9] $end
$var wire 10 G whead_pointer [0:9] $end

$scope function clogb $end
$var integer 32 H clogb $end
$var integer 32 I argument $end
$var integer 32 J i $end
$upscope $end


$scope function croot $end
$var integer 32 K croot $end
$var integer 32 L argument $end
$var integer 32 M base $end
$var integer 32 N i $end
$var integer 32 O j $end
$upscope $end


$scope function pop_count $end
$var integer 32 P pop_count $end
$var integer 32 Q argument $end
$var integer 32 R i $end
$upscope $end


$scope function suffix_length $end
$var integer 32 S suffix_length $end
$var integer 32 T value1 $end
$var integer 32 U value2 $end
$var integer 32 V v1 $end
$var integer 32 W v2 $end
$upscope $end


$scope module tracker $end
$var wire 1 ; clk $end
$var wire 1 < reset $end
$var wire 1 = read_enable $end
$var wire 1 > write_enable $end
$var wire 5 C new_freed_slot [0:4] $end
$var reg 5 X next_available_slot [0:4] $end
$var reg 1 Y memory_bank_full $end
$var reg 1 Z memory_bank_empty $end
$var reg 5 [ read_ptr [0:4] $end
$var reg 5 \ write_ptr [0:4] $end

$scope function clogb $end
$var integer 32 ] clogb $end
$var integer 32 ^ argument $end
$var integer 32 _ i $end
$upscope $end


$scope function croot $end
$var integer 32 ` croot $end
$var integer 32 a argument $end
$var integer 32 b base $end
$var integer 32 c i $end
$var integer 32 d j $end
$upscope $end


$scope function pop_count $end
$var integer 32 e pop_count $end
$var integer 32 f argument $end
$var integer 32 g i $end
$upscope $end


$scope function suffix_length $end
$var integer 32 h suffix_length $end
$var integer 32 i value1 $end
$var integer 32 j value2 $end
$var integer 32 k v1 $end
$var integer 32 l v2 $end
$upscope $end

$upscope $end


$scope module tail_ptr_selector $end
$var wire 2 A select [0:1] $end
$var wire 10 F data_in [0:9] $end
$var reg 5 m data_out [0:4] $end
$upscope $end


$scope module head_ptr_selector $end
$var wire 2 @ select [0:1] $end
$var wire 10 G data_in [0:9] $end
$var reg 5 n data_out [0:4] $end
$upscope $end

$upscope $end

$upscope $end

$enddefinitions $end

#0
$dumpvars
0;
0=
0<
0>
0!
0*
1)
0#
0"
0Z
1Y
0$
bxxxxxxxxxxxxxxxxxxxxxxxxxxxxxxxx I
bxxxxxxxxxxxxxxxxxxxxxxxxxxxxxxxx H
bxxxxxxxxxxxxxxxxxxxxxxxxxxxxxxxx J
bxxxxxxxxxxxxxxxxxxxxxxxxxxxxxxxx L
bxxxxxxxxxxxxxxxxxxxxxxxxxxxxxxxx K
bxxxxxxxxxxxxxxxxxxxxxxxxxxxxxxxx N
bxxxxxxxxxxxxxxxxxxxxxxxxxxxxxxxx O
bxxxxxxxxxxxxxxxxxxxxxxxxxxxxxxxx M
b0000000000000000000000000000000000000000000000000000000000000000 ?
b0000000000000000000000000000000000000000000000000000000000000000 B
bxxxxxxxxxxxxxxxxxxxxxxxxxxxxxxxx Q
bxxxxxxxxxxxxxxxxxxxxxxxxxxxxxxxx R
bxxxxxxxxxxxxxxxxxxxxxxxxxxxxxxxx P
bxxxxxxxxxxxxxxxxxxxxxxxxxxxxxxxx S
bxxxxxxxxxxxxxxxxxxxxxxxxxxxxxxxx V
bxxxxxxxxxxxxxxxxxxxxxxxxxxxxxxxx W
bxxxxxxxxxxxxxxxxxxxxxxxxxxxxxxxx T
bxxxxxxxxxxxxxxxxxxxxxxxxxxxxxxxx U
b00 @
b00 A
bxxxxxxxxxxxxxxxxxxxxxxxxxxxxxxxx ,
bxxxxxxxxxxxxxxxxxxxxxxxxxxxxxxxx +
bxxxxxxxxxxxxxxxxxxxxxxxxxxxxxxxx -
bxxxxxxxxxxxxxxxxxxxxxxxxxxxxxxxx /
bxxxxxxxxxxxxxxxxxxxxxxxxxxxxxxxx 0
bxxxxxxxxxxxxxxxxxxxxxxxxxxxxxxxx .
bxxxxxxxxxxxxxxxxxxxxxxxxxxxxxxxx 1
bxxxxxxxxxxxxxxxxxxxxxxxxxxxxxxxx 2
bxxxxx m
b0000000000000000000000000000000000000000000000000000000000000000 %
b0000000000000000000000000000000000000000000000000000000000000000 (
b00000xxxxx F
bxxxxx n
bxxxxx C
b00000 D
b00000 X
bxxxxxxxxxxxxxxxxxxxxxxxxxxxxxxxx 4
bxxxxxxxxxxxxxxxxxxxxxxxxxxxxxxxx 5
bxxxxxxxxxxxxxxxxxxxxxxxxxxxxxxxx 3
b00000 [
bxxxxxxxxxxxxxxxxxxxxxxxxxxxxxxxx 6
bxxxxxxxxxxxxxxxxxxxxxxxxxxxxxxxx 9
bxxxxxxxxxxxxxxxxxxxxxxxxxxxxxxxx :
bxxxxxxxxxxxxxxxxxxxxxxxxxxxxxxxx 7
bxxxxxxxxxxxxxxxxxxxxxxxxxxxxxxxx 8
bxxxxxxxxxxxxxxxxxxxxxxxxxxxxxxxx ^
bxxxxxxxxxxxxxxxxxxxxxxxxxxxxxxxx ]
bxxxxxxxxxxxxxxxxxxxxxxxxxxxxxxxx _
bxxxxxxxxxxxxxxxxxxxxxxxxxxxxxxxx a
bxxxxxxxxxxxxxxxxxxxxxxxxxxxxxxxx b
bxxxxxxxxxxxxxxxxxxxxxxxxxxxxxxxx `
bxxxxxxxxxxxxxxxxxxxxxxxxxxxxxxxx c
bxxxxxxxxxxxxxxxxxxxxxxxxxxxxxxxx d
bxxxxxxxxxxxxxxxxxxxxxxxxxxxxxxxx f
bxxxxxxxxxxxxxxxxxxxxxxxxxxxxxxxx g
bxxxxxxxxxxxxxxxxxxxxxxxxxxxxxxxx e
bxxxxxxxxxxxxxxxxxxxxxxxxxxxxxxxx h
bxxxxxxxxxxxxxxxxxxxxxxxxxxxxxxxx k
bxxxxxxxxxxxxxxxxxxxxxxxxxxxxxxxx l
bxxxxxxxxxxxxxxxxxxxxxxxxxxxxxxxx i
bxxxxxxxxxxxxxxxxxxxxxxxxxxxxxxxx j
b00 &
b00 '
b00000xxxxx G
b11111 \
bxxxxx E
$end
#1
1"
1<
1!
1;
b0000000000000000000000000000000000000000000000000000000000110000 %
b0000000000000000000000000000000000000000000000000000000000110000 ?
b01 &
b01 @
b01 '
b01 A
#2
0"
0<
0!
0;
b0000000000000000000000000000000000000000000000000000000000111001 %
b0000000000000000000000000000000000000000000000000000000000111001 ?
b00 '
b00 A
1#
1=
b0000000000 F
b0000000000 G
b00000 n
b00000 C
#3
1"
1<
1!
1;
b0000000000000000000000000000000000000000000000000000000000010010 %
b0000000000000000000000000000000000000000000000000000000000010010 ?
b01 '
b01 A
0#
0=
b00000 m
b00000 E
#4
0!
0;
b0000000000000000000000000000000000000000000000000000000000011010 %
b0000000000000000000000000000000000000000000000000000000000011010 ?
b00 '
b00 A
bxxxxx m
bxxxxx E
#5
1!
1;
b0000000000000000000000000000000000000000000000000000000001011110 %
b0000000000000000000000000000000000000000000000000000000001011110 ?
#6
0!
0;
b0000000000000000000000000000000000000000000000000000000000110101 %
b0000000000000000000000000000000000000000000000000000000000110101 ?
b00 &
b00 @
b01 '
b01 A
bxxxxx n
bxxxxx C
b00000 m
b00000 E
#7
1!
1;
b0000000000000000000000000000000000000000000000000000000000010111 %
b0000000000000000000000000000000000000000000000000000000000010111 ?
b00 '
b00 A
1#
1=
bxxxxx m
bxxxxx E
bxxxxxxxxxxxxxxxxxxxxxxxxxxxxxxxxxxxxxxxxxxxxxxxxxxxxxxxxxxxxxxxx B
bxxxxxxxxxxxxxxxxxxxxxxxxxxxxxxxxxxxxxxxxxxxxxxxxxxxxxxxxxxxxxxxx (
0Y
0)
b00001 [
bxxxxx00000 F
bxxxxx00000 G
#8
0!
0;
b0000000000000000000000000000000000000000000000000000000000010101 %
b0000000000000000000000000000000000000000000000000000000000010101 ?
b01 '
b01 A
1$
1>
b00000 m
b00000 E
#9
1!
1;
b0000000000000000000000000000000000000000000000000000000000110111 %
b0000000000000000000000000000000000000000000000000000000000110111 ?
b01 &
b01 @
b00 '
b00 A
0#
0=
b00000 n
b00000 C
bxxxxx m
bxxxxx E
b00001 X
b00001 D
b00000 \
#10
0!
0;
b0000000000000000000000000000000000000000000000000000000001001111 %
b0000000000000000000000000000000000000000000000000000000001001111 ?
1#
1=
#11
1!
1;
b0000000000000000000000000000000000000000000000000000000000000110 %
b0000000000000000000000000000000000000000000000000000000000000110 ?
b00 &
b00 @
b01 '
b01 A
0#
0=
0$
0>
bxxxxx n
bxxxxx C
b00000 m
b00000 E
#12
0!
0;
b0000000000000000000000000000000000000000000000000000000000110001 %
b0000000000000000000000000000000000000000000000000000000000110001 ?
b01 &
b01 @
b00 '
b00 A
1#
1=
1$
1>
b00000 n
b00000 C
bxxxxx m
bxxxxx E
#13
1!
1;
b0000000000000000000000000000000000000000000000000000000001000000 %
b0000000000000000000000000000000000000000000000000000000001000000 ?
b00 &
b00 @
b01 '
b01 A
bxxxxx n
bxxxxx C
b00000 m
b00000 E
b0000000000000000000000000000000000000000000000000000000000110111 B
b0000000000000000000000000000000000000000000000000000000000110111 (
b00001 \
b00010 [
b0000000000 F
b0000000000 G
#14
0!
0;
b0000000000000000000000000000000000000000000000000000000001001011 %
b0000000000000000000000000000000000000000000000000000000001001011 ?
b01 &
b01 @
b00 '
b00 A
0#
0=
b00000 n
b00000 C
bxxxxx m
bxxxxx E
#15
1!
1;
b0000000000000000000000000000000000000000000000000000000000110101 %
b0000000000000000000000000000000000000000000000000000000000110101 ?
1#
1=
0$
0>
b00010 X
b00010 D
b00011 [
#16
0!
0;
b0000000000000000000000000000000000000000000000000000000000110111 %
b0000000000000000000000000000000000000000000000000000000000110111 ?
b00 &
b00 @
b01 '
b01 A
bxxxxx n
bxxxxx C
b00000 m
b00000 E
#17
1!
1;
b0000000000000000000000000000000000000000000000000000000000010011 %
b0000000000000000000000000000000000000000000000000000000000010011 ?
b01 &
b01 @
0#
0=
1$
1>
b00000 n
b00000 C
b00011 X
b00011 D
b00010 \
#18
0!
0;
b0000000000000000000000000000000000000000000000000000000000101101 %
b0000000000000000000000000000000000000000000000000000000000101101 ?
b00 &
b00 @
b00 '
b00 A
0$
0>
bxxxxx n
bxxxxx C
bxxxxx m
bxxxxx E
#19
1!
1;
b0000000000000000000000000000000000000000000000000000000000011111 %
b0000000000000000000000000000000000000000000000000000000000011111 ?
b01 &
b01 @
1$
1>
b00000 n
b00000 C
1Y
1)
b00011 \
#20
0!
0;
b0000000000000000000000000000000000000000000000000000000000110101 %
b0000000000000000000000000000000000000000000000000000000000110101 ?
b01 '
b01 A
1#
1=
0$
0>
b00000 m
b00000 E
#21
1!
1;
b0000000000000000000000000000000000000000000000000000000000101011 %
b0000000000000000000000000000000000000000000000000000000000101011 ?
0#
0=
#22
0!
0;
b0000000000000000000000000000000000000000000000000000000000111010 %
b0000000000000000000000000000000000000000000000000000000000111010 ?
b00 &
b00 @
b00 '
b00 A
1#
1=
bxxxxx n
bxxxxx C
bxxxxx m
bxxxxx E
#23
1!
1;
b0000000000000000000000000000000000000000000000000000000000001111 %
b0000000000000000000000000000000000000000000000000000000000001111 ?
b01 &
b01 @
b01 '
b01 A
0#
0=
b00000 n
b00000 C
b00000 m
b00000 E
#24
0!
0;
b0000000000000000000000000000000000000000000000000000000000010000 %
b0000000000000000000000000000000000000000000000000000000000010000 ?
1#
1=
#25
1!
1;
b0000000000000000000000000000000000000000000000000000000000010101 %
b0000000000000000000000000000000000000000000000000000000000010101 ?
b00 '
b00 A
0#
0=
bxxxxx m
bxxxxx E
#26
0!
0;
b0000000000000000000000000000000000000000000000000000000001001011 %
b0000000000000000000000000000000000000000000000000000000001001011 ?
1#
1=
#27
1!
1;
b00 &
b00 @
bxxxxx n
bxxxxx C
0Y
0)
b00100 [
b0001000000 F
b0001000000 G
#28
0!
0;
b0000000000000000000000000000000000000000000000000000000001010011 %
b0000000000000000000000000000000000000000000000000000000001010011 ?
0#
0=
#29
1!
1;
b0000000000000000000000000000000000000000000000000000000001011110 %
b0000000000000000000000000000000000000000000000000000000001011110 ?
b01 '
b01 A
1#
1=
b00000 m
b00000 E
bxxxxxxxxxxxxxxxxxxxxxxxxxxxxxxxxxxxxxxxxxxxxxxxxxxxxxxxxxxxxxxxx B
bxxxxxxxxxxxxxxxxxxxxxxxxxxxxxxxxxxxxxxxxxxxxxxxxxxxxxxxxxxxxxxxx (
b00100 X
b00100 D
b00101 [
bxxxxx00000 F
bxxxxx00000 G
#30
0!
0;
b0000000000000000000000000000000000000000000000000000000000110011 %
b0000000000000000000000000000000000000000000000000000000000110011 ?
#31
1!
1;
b0000000000000000000000000000000000000000000000000000000000011101 %
b0000000000000000000000000000000000000000000000000000000000011101 ?
b01 &
b01 @
b00 '
b00 A
0#
0=
1$
1>
b00000 n
b00000 C
bxxxxx m
bxxxxx E
b00101 X
b00101 D
b00100 \
#32
0!
0;
b0000000000000000000000000000000000000000000000000000000000110101 %
b0000000000000000000000000000000000000000000000000000000000110101 ?
b00 &
b00 @
bxxxxx n
bxxxxx C
#33
1!
1;
b0000000000000000000000000000000000000000000000000000000000101100 %
b0000000000000000000000000000000000000000000000000000000000101100 ?
1#
1=
b00101 \
b00110 [
#34
0!
0;
b0000000000000000000000000000000000000000000000000000000000001010 %
b0000000000000000000000000000000000000000000000000000000000001010 ?
0#
0=
#35
1!
1;
b0000000000000000000000000000000000000000000000000000000000101100 %
b0000000000000000000000000000000000000000000000000000000000101100 ?
b00110 X
b00110 D
1Y
1)
b00110 \
#36
0!
0;
b0000000000000000000000000000000000000000000000000000000001011100 %
b0000000000000000000000000000000000000000000000000000000001011100 ?
b01 &
b01 @
1#
1=
0$
0>
b00000 n
b00000 C
#37
1!
1;
b0000000000000000000000000000000000000000000000000000000000000001 %
b0000000000000000000000000000000000000000000000000000000000000001 ?
b00 &
b00 @
b01 '
b01 A
0#
0=
bxxxxx n
bxxxxx C
b00000 m
b00000 E
#38
0!
0;
b0000000000000000000000000000000000000000000000000000000000011100 %
b0000000000000000000000000000000000000000000000000000000000011100 ?
b00 '
b00 A
1#
1=
bxxxxx m
bxxxxx E
#39
1!
1;
b0000000000000000000000000000000000000000000000000000000001000110 %
b0000000000000000000000000000000000000000000000000000000001000110 ?
0#
0=
#40
0!
0;
b0000000000000000000000000000000000000000000000000000000000010101 %
b0000000000000000000000000000000000000000000000000000000000010101 ?
b01 '
b01 A
1#
1=
b00000 m
b00000 E
#41
1!
1;
b0000000000000000000000000000000000000000000000000000000000001010 %
b0000000000000000000000000000000000000000000000000000000000001010 ?
0Y
0)
b00111 [
#42
0!
0;
b0000000000000000000000000000000000000000000000000000000000110101 %
b0000000000000000000000000000000000000000000000000000000000110101 ?
b01 &
b01 @
b00 '
b00 A
1$
1>
b00000 n
b00000 C
bxxxxx m
bxxxxx E
#43
1!
1;
b0000000000000000000000000000000000000000000000000000000001001100 %
b0000000000000000000000000000000000000000000000000000000001001100 ?
b00 &
b00 @
0$
0>
bxxxxx n
bxxxxx C
b0000000000000000000000000000000000000000000000000000000000110111 B
b0000000000000000000000000000000000000000000000000000000000110111 (
b00111 X
b00111 D
b01000 [
b0010000000 F
b0010000000 G
#44
0!
0;
b0000000000000000000000000000000000000000000000000000000000000001 %
b0000000000000000000000000000000000000000000000000000000000000001 ?
0#
0=
1$
1>
#45
1!
1;
b0000000000000000000000000000000000000000000000000000000000101010 %
b0000000000000000000000000000000000000000000000000000000000101010 ?
b01 &
b01 @
1#
1=
0$
0>
b00000 n
b00000 C
bxxxxxxxxxxxxxxxxxxxxxxxxxxxxxxxxxxxxxxxxxxxxxxxxxxxxxxxxxxxxxxxx B
bxxxxxxxxxxxxxxxxxxxxxxxxxxxxxxxxxxxxxxxxxxxxxxxxxxxxxxxxxxxxxxxx (
b01000 X
b01000 D
b01001 [
b00100xxxxx F
b00100xxxxx G
bxxxxx n
bxxxxx C
#46
0!
0;
b0000000000000000000000000000000000000000000000000000000000001100 %
b0000000000000000000000000000000000000000000000000000000000001100 ?
b00 &
b00 @
b01 '
b01 A
1$
1>
#47
1!
1;
b0000000000000000000000000000000000000000000000000000000000001010 %
b0000000000000000000000000000000000000000000000000000000000001010 ?
b00 '
b00 A
0$
0>
b01001 X
b01001 D
b01010 [
bxxxxxxxxxx F
bxxxxxxxxxx G
#48
0!
0;
b0000000000000000000000000000000000000000000000000000000000111100 %
b0000000000000000000000000000000000000000000000000000000000111100 ?
b01 &
b01 @
0#
0=
1$
1>
#49
1!
1;
b0000000000000000000000000000000000000000000000000000000001010010 %
b0000000000000000000000000000000000000000000000000000000001010010 ?
0$
0>
b01010 X
b01010 D
#50
0!
0;
b0000000000000000000000000000000000000000000000000000000000100101 %
b0000000000000000000000000000000000000000000000000000000000100101 ?
1$
1>
#51
1!
1;
b0000000000000000000000000000000000000000000000000000000000100011 %
b0000000000000000000000000000000000000000000000000000000000100011 ?
0$
0>
#52
0!
0;
b0000000000000000000000000000000000000000000000000000000000011111 %
b0000000000000000000000000000000000000000000000000000000000011111 ?
b00 &
b00 @
#53
1!
1;
b0000000000000000000000000000000000000000000000000000000001100000 %
b0000000000000000000000000000000000000000000000000000000001100000 ?
b01 &
b01 @
b01 '
b01 A
#54
0!
0;
b0000000000000000000000000000000000000000000000000000000000100001 %
b0000000000000000000000000000000000000000000000000000000000100001 ?
b00 &
b00 @
b00 '
b00 A
#55
1!
1;
b0000000000000000000000000000000000000000000000000000000000110101 %
b0000000000000000000000000000000000000000000000000000000000110101 ?
b01 &
b01 @
1#
1=
b01011 [
#56
0!
0;
b0000000000000000000000000000000000000000000000000000000000110111 %
b0000000000000000000000000000000000000000000000000000000000110111 ?
b00 &
b00 @
0#
0=
#57
1!
1;
b0000000000000000000000000000000000000000000000000000000000000110 %
b0000000000000000000000000000000000000000000000000000000000000110 ?
b01 '
b01 A
1#
1=
1$
1>
b01011 X
b01011 D
b00111 \
b01100 [
#58
0!
0;
b0000000000000000000000000000000000000000000000000000000000110011 %
b0000000000000000000000000000000000000000000000000000000000110011 ?
b01 &
b01 @
b00 '
b00 A
0#
0=
#59
1!
1;
b0000000000000000000000000000000000000000000000000000000000010011 %
b0000000000000000000000000000000000000000000000000000000000010011 ?
b00 &
b00 @
1#
1=
0$
0>
b01100 X
b01100 D
b01101 [
#60
0!
0;
b0000000000000000000000000000000000000000000000000000000001011010 %
b0000000000000000000000000000000000000000000000000000000001011010 ?
b01 '
b01 A
0#
0=
#61
1!
1;
b0000000000000000000000000000000000000000000000000000000001011011 %
b0000000000000000000000000000000000000000000000000000000001011011 ?
b01 &
b01 @
1#
1=
1$
1>
b01101 X
b01101 D
b01000 \
b01110 [
#62
0!
0;
b0000000000000000000000000000000000000000000000000000000000111011 %
b0000000000000000000000000000000000000000000000000000000000111011 ?
0$
0>
#63
1!
1;
b0000000000000000000000000000000000000000000000000000000000100101 %
b0000000000000000000000000000000000000000000000000000000000100101 ?
0#
0=
1$
1>
b01110 X
b01110 D
b01001 \
#64
0!
0;
b0000000000000000000000000000000000000000000000000000000000100001 %
b0000000000000000000000000000000000000000000000000000000000100001 ?
b00 '
b00 A
#65
1!
1;
b0000000000000000000000000000000000000000000000000000000001100000 %
b0000000000000000000000000000000000000000000000000000000001100000 ?
1#
1=
b01010 \
b01111 [
#66
0!
0;
b0000000000000000000000000000000000000000000000000000000000101100 %
b0000000000000000000000000000000000000000000000000000000000101100 ?
b00 &
b00 @
0#
0=
0$
0>
#67
1!
1;
b0000000000000000000000000000000000000000000000000000000001011100 %
b0000000000000000000000000000000000000000000000000000000001011100 ?
b01 &
b01 @
1#
1=
1$
1>
b01111 X
b01111 D
b01011 \
b10000 [
#68
0!
0;
b0000000000000000000000000000000000000000000000000000000001011110 %
b0000000000000000000000000000000000000000000000000000000001011110 ?
b01 '
b01 A
0#
0=
0$
0>
#69
1!
1;
b0000000000000000000000000000000000000000000000000000000000011101 %
b0000000000000000000000000000000000000000000000000000000000011101 ?
b00 &
b00 @
1$
1>
b10000 X
b10000 D
b01100 \
#70
0!
0;
b0000000000000000000000000000000000000000000000000000000000010110 %
b0000000000000000000000000000000000000000000000000000000000010110 ?
b01 &
b01 @
b00 '
b00 A
1#
1=
0$
0>
#71
1!
1;
b0000000000000000000000000000000000000000000000000000000000001111 %
b0000000000000000000000000000000000000000000000000000000000001111 ?
b00 &
b00 @
b01 '
b01 A
b10001 [
#72
0!
0;
b0000000000000000000000000000000000000000000000000000000000001101 %
b0000000000000000000000000000000000000000000000000000000000001101 ?
b00 '
b00 A
#73
1!
1;
b0000000000000000000000000000000000000000000000000000000001000101 %
b0000000000000000000000000000000000000000000000000000000001000101 ?
b01 &
b01 @
b01 '
b01 A
0#
0=
b10001 X
b10001 D
#74
0!
0;
b0000000000000000000000000000000000000000000000000000000000111001 %
b0000000000000000000000000000000000000000000000000000000000111001 ?
1#
1=
#75
1!
1;
b0000000000000000000000000000000000000000000000000000000000111101 %
b0000000000000000000000000000000000000000000000000000000000111101 ?
b00 '
b00 A
0#
0=
#76
0!
0;
b0000000000000000000000000000000000000000000000000000000001011001 %
b0000000000000000000000000000000000000000000000000000000001011001 ?
b00 &
b00 @
#77
1!
1;
b0000000000000000000000000000000000000000000000000000000000011000 %
b0000000000000000000000000000000000000000000000000000000000011000 ?
1#
1=
1$
1>
b01101 \
b10010 [
#78
0!
0;
b0000000000000000000000000000000000000000000000000000000000000110 %
b0000000000000000000000000000000000000000000000000000000000000110 ?
0#
0=
#79
1!
1;
b0000000000000000000000000000000000000000000000000000000000110010 %
b0000000000000000000000000000000000000000000000000000000000110010 ?
b01 &
b01 @
b10010 X
b10010 D
b01110 \
#80
0!
0;
b0000000000000000000000000000000000000000000000000000000000001010 %
b0000000000000000000000000000000000000000000000000000000000001010 ?
0$
0>
#81
1!
1;
b0000000000000000000000000000000000000000000000000000000000001000 %
b0000000000000000000000000000000000000000000000000000000000001000 ?
1$
1>
b01111 \
#82
0!
0;
b0000000000000000000000000000000000000000000000000000000000001100 %
b0000000000000000000000000000000000000000000000000000000000001100 ?
b00 &
b00 @
1#
1=
0$
0>
#83
1!
1;
b0000000000000000000000000000000000000000000000000000000000110101 %
b0000000000000000000000000000000000000000000000000000000000110101 ?
b01 '
b01 A
0#
0=
1$
1>
b10000 \
#84
0!
0;
b0000000000000000000000000000000000000000000000000000000000011111 %
b0000000000000000000000000000000000000000000000000000000000011111 ?
0$
0>
#85
1!
1;
b0000000000000000000000000000000000000000000000000000000000101100 %
b0000000000000000000000000000000000000000000000000000000000101100 ?
b01 &
b01 @
1$
1>
b10001 \
#86
0!
0;
b0000000000000000000000000000000000000000000000000000000000000101 %
b0000000000000000000000000000000000000000000000000000000000000101 ?
b00 '
b00 A
1#
1=
#87
1!
1;
b0000000000000000000000000000000000000000000000000000000000101111 %
b0000000000000000000000000000000000000000000000000000000000101111 ?
b00 &
b00 @
0$
0>
b10011 [
#88
0!
0;
b0000000000000000000000000000000000000000000000000000000000010100 %
b0000000000000000000000000000000000000000000000000000000000010100 ?
b01 &
b01 @
b01 '
b01 A
0#
0=
1$
1>
#89
1!
1;
b0000000000000000000000000000000000000000000000000000000000010001 %
b0000000000000000000000000000000000000000000000000000000000010001 ?
b00 &
b00 @
b00 '
b00 A
0$
0>
b10011 X
b10011 D
#90
0!
0;
b0000000000000000000000000000000000000000000000000000000000001010 %
b0000000000000000000000000000000000000000000000000000000000001010 ?
b01 &
b01 @
1$
1>
#91
1!
1;
b0000000000000000000000000000000000000000000000000000000000100000 %
b0000000000000000000000000000000000000000000000000000000000100000 ?
b01 '
b01 A
1#
1=
0$
0>
b10100 [
#92
0!
0;
b0000000000000000000000000000000000000000000000000000000001001001 %
b0000000000000000000000000000000000000000000000000000000001001001 ?
0#
0=
#93
1!
1;
b0000000000000000000000000000000000000000000000000000000000110111 %
b0000000000000000000000000000000000000000000000000000000000110111 ?
b00 &
b00 @
b00 '
b00 A
b10100 X
b10100 D
#94
0!
0;
b0000000000000000000000000000000000000000000000000000000001011100 %
b0000000000000000000000000000000000000000000000000000000001011100 ?
b01 &
b01 @
b01 '
b01 A
#95
1!
1;
b0000000000000000000000000000000000000000000000000000000000001110 %
b0000000000000000000000000000000000000000000000000000000000001110 ?
1#
1=
b10101 [
#96
0!
0;
b0000000000000000000000000000000000000000000000000000000000101100 %
b0000000000000000000000000000000000000000000000000000000000101100 ?
b00 &
b00 @
0#
0=
1$
1>
#97
1!
1;
b0000000000000000000000000000000000000000000000000000000000101110 %
b0000000000000000000000000000000000000000000000000000000000101110 ?
b01 &
b01 @
0$
0>
b10101 X
b10101 D
#98
0!
0;
b0000000000000000000000000000000000000000000000000000000001010111 %
b0000000000000000000000000000000000000000000000000000000001010111 ?
1#
1=
#99
1!
1;
b0000000000000000000000000000000000000000000000000000000001010001 %
b0000000000000000000000000000000000000000000000000000000001010001 ?
b00 &
b00 @
b00 '
b00 A
b10110 [
#100
0!
0;
b0000000000000000000000000000000000000000000000000000000001000111 %
b0000000000000000000000000000000000000000000000000000000001000111 ?
b01 '
b01 A
#101
1!
1;
b0000000000000000000000000000000000000000000000000000000000010000 %
b0000000000000000000000000000000000000000000000000000000000010000 ?
1$
1>
b10110 X
b10110 D
b10010 \
b10111 [
#102
0!
0;
b0000000000000000000000000000000000000000000000000000000001001110 %
b0000000000000000000000000000000000000000000000000000000001001110 ?
b00 '
b00 A
0#
0=
0$
0>
